PCBNEW-LibModule-V1  7/19/2014 5:53:56 PM
# encoding utf-8
Units mm
$INDEX
SOT-26
SOT-89
$EndINDEX
$MODULE SOT-26
Po 0 0 0 15 53C8A537 00000000 ~~
Li SOT-26
Sc 0
AR /53B87208
Op 0 0 0
T0 0 -2.1 0.50038 0.50038 0 0.125095 N I 21 N "REF**"
T1 0 0 0.50038 0.50038 900 0.125095 N I 21 N "SOT-26"
DS -0.8 -1.45 0.8 -1.45 0.15 21
DS 0.8 -1.45 0.8 1.45 0.15 21
DS 0.8 1.45 -0.8 1.45 0.15 21
DS -0.8 1.45 -0.8 -1.45 0.15 21
DC -0.454 -1.093 -0.327 -1.093 0.15 21
$PAD
Sh "1" R 0.9 0.5 0 0 0
Dr 0 0 0
At SMD N 00808000
Ne 0 ""
Po -1.25 -0.95
$EndPAD
$PAD
Sh "2" R 0.9 0.5 0 0 0
Dr 0 0 0
At SMD N 00808000
Ne 0 ""
Po -1.25 0
$EndPAD
$PAD
Sh "3" R 0.9 0.5 0 0 0
Dr 0 0 0
At SMD N 00808000
Ne 0 ""
Po -1.25 0.95
$EndPAD
$PAD
Sh "4" R 0.9 0.5 0 0 0
Dr 0 0 0
At SMD N 00808000
Ne 0 ""
Po 1.25 0.95
$EndPAD
$PAD
Sh "5" R 0.9 0.5 0 0 0
Dr 0 0 0
At SMD N 00808000
Ne 0 ""
Po 1.25 0
$EndPAD
$PAD
Sh "6" R 0.9 0.5 0 0 0
Dr 0 0 0
At SMD N 00808000
Ne 0 ""
Po 1.25 -0.95
$EndPAD
$EndMODULE SOT-26
$MODULE SOT-89
Po 0 0 0 15 53CB14B8 00000000 ~~
Li SOT-89
Sc 0
AR /53B8E5D8
Op 0 0 0
At SMD
T0 -1.651 0 0.5 0.5 900 0.1 N V 21 N "REF**"
T1 1.778 0 0.5 0.5 900 0.1 N I 21 N "SOT-89"
DS -2.2987 1.3081 -2.2987 -1.3081 0.127 21
DS -2.2987 -1.3081 2.2987 -1.3081 0.127 21
DS 2.2987 -1.3081 2.2987 1.3081 0.127 21
DS 2.2987 1.3081 -2.2987 1.3081 0.127 21
$PAD
Sh "1" R 0.7 1.6 0 0 0
Dr 0 0 0
At SMD N 00808000
Ne 1 "/LED-"
Po -1.5 2
$EndPAD
$PAD
Sh "2" R 0.7 2.2 0 0 0
Dr 0 0 0
At SMD N 00808000
Ne 2 "GND"
Po 0 1.7
$EndPAD
$PAD
Sh "3" R 0.7 1.6 0 0 0
Dr 0 0 0
At SMD N 00808000
Ne 3 "VCC"
Po 1.5 2
$EndPAD
$PAD
Sh "2" R 2 2.8 0 0 0
Dr 0 0 0
At SMD N 00808000
Ne 2 "GND"
Po 0 -0.8
$EndPAD
$SHAPE3D
Na "smd/smd_transistors/sot89.wrl"
Sc 1 1 1
Of 0 0 0
Ro 0 0 0
$EndSHAPE3D
$EndMODULE SOT-89
$EndLIBRARY
