(export (version D)
  (design
    (source C:/BitBucket/pcb-dw06d-breakout/circuit.sch)
    (date "8/13/2014 1:30:57 PM")
    (tool "eeschema (2013-07-07 BZR 4022)-stable"))
  (components
    (comp (ref K1)
      (value CONN_2)
      (libsource (lib conn) (part CONN_2))
      (sheetpath (names /) (tstamps /))
      (tstamp 53CB049B))
    (comp (ref K2)
      (value CONN_2)
      (libsource (lib conn) (part CONN_2))
      (sheetpath (names /) (tstamps /))
      (tstamp 53CB04AA))
    (comp (ref U1)
      (value DW06D)
      (libsource (lib IC) (part IC-6))
      (sheetpath (names /) (tstamps /))
      (tstamp 53CB06FA))
    (comp (ref R1)
      (value 100)
      (libsource (lib device) (part R))
      (sheetpath (names /) (tstamps /))
      (tstamp 53EB846B))
    (comp (ref R2)
      (value 1k)
      (libsource (lib device) (part R))
      (sheetpath (names /) (tstamps /))
      (tstamp 53EB847A))
    (comp (ref C1)
      (value 100n)
      (libsource (lib device) (part C))
      (sheetpath (names /) (tstamps /))
      (tstamp 53EB84A5)))
  (libparts
    (libpart (lib device) (part C)
      (description "Condensateur non polarise")
      (footprints
        (fp SM*)
        (fp C?)
        (fp C1-1))
      (fields
        (field (name Reference) C)
        (field (name Value) C)
        (field (name Footprint) ~)
        (field (name Datasheet) ~))
      (pins
        (pin (num 1) (name ~) (type passive))
        (pin (num 2) (name ~) (type passive))))
    (libpart (lib device) (part R)
      (description Resistance)
      (footprints
        (fp R?)
        (fp SM0603)
        (fp SM0805)
        (fp R?-*)
        (fp SM1206))
      (fields
        (field (name Reference) R)
        (field (name Value) R)
        (field (name Footprint) ~)
        (field (name Datasheet) ~))
      (pins
        (pin (num 1) (name ~) (type passive))
        (pin (num 2) (name ~) (type passive))))
    (libpart (lib conn) (part CONN_2)
      (description "Symbole general de connecteur")
      (fields
        (field (name Reference) P)
        (field (name Value) CONN_2))
      (pins
        (pin (num 1) (name P1) (type passive))
        (pin (num 2) (name PM) (type passive))))
    (libpart (lib IC) (part IC-6)
      (fields
        (field (name Reference) U)
        (field (name Value) IC-6)
        (field (name Footprint) ~)
        (field (name Datasheet) ~))
      (pins
        (pin (num 1) (name 1) (type input))
        (pin (num 2) (name 2) (type input))
        (pin (num 3) (name 3) (type input))
        (pin (num 4) (name 4) (type input))
        (pin (num 5) (name 5) (type input))
        (pin (num 6) (name 6) (type input)))))
  (libraries
    (library (logical device)
      (uri "C:\\Program Files (x86)\\KiCad\\share\\library\\device.lib"))
    (library (logical conn)
      (uri "C:\\Program Files (x86)\\KiCad\\share\\library\\conn.lib"))
    (library (logical IC)
      (uri library\IC.lib)))
  (nets
    (net (code 1) (name /VDD)
      (node (ref C1) (pin 2))
      (node (ref U1) (pin 5))
      (node (ref R1) (pin 1)))
    (net (code 2) (name /P+)
      (node (ref K2) (pin 2))
      (node (ref K1) (pin 1))
      (node (ref R1) (pin 2)))
    (net (code 3) (name /V-)
      (node (ref R2) (pin 1))
      (node (ref U1) (pin 1)))
    (net (code 4) (name "")
      (node (ref U1) (pin 4)))
    (net (code 5) (name /P-)
      (node (ref U1) (pin 2))
      (node (ref R2) (pin 2))
      (node (ref K1) (pin 2)))
    (net (code 6) (name /B-)
      (node (ref K2) (pin 1))
      (node (ref C1) (pin 1))
      (node (ref U1) (pin 6))
      (node (ref U1) (pin 3)))))